{
  "name": "mlt",
  "maum_submodules": [
    "brain-sds",
    "brain-sds-train",
    "brain-stt",
    "brain-stt-train",
    "brain-ta",
    "brain-ta-train",
    "brain-mrc",
    "brain-mrc-train"
  ],
  "production": {
    "ubuntu": {
      "os_name": "ubuntu",
      "os_version": "16.04",
      "pre_install": [
        "curl -sL https://deb.nodesource.com/setup_6.x | sudo -E bash -"
      ],
      "repositories": null,
      "os_packages": [
      ],
      "node_packages": [
      ],
      "python_packages": [
      ],
      "post_install": [
        "sudo ldconfig"
      ]
    },
    "centos": {
    }
  },
  "development": {
    "ubuntu": {
      "os_name": "ubuntu",
      "os_version": "16.04",
      "pre_install": [
        "curl -sL https://deb.nodesource.com/setup_6.x | sudo -E bash -"
      ],
      "repositories": [
      ],
      "os_packages": [
        "build-essential",
        "python-pip",
        "python-dev",
        "openjdk-8-jdk",
        "libssl-dev",
        "libcurl4-openssl-dev",
        "sox",
        "libpng12-dev",
        "nginx"
      ],
      "node_packages": [
        "@angular/cli@1.0.0"
      ],
      "python_packages": [
      ],
      "post_install": [
        "sudo ldconfig"
      ]
    },
    "centos": {
    }
  }
}
