{
  "name": "maum-admin-server",
  "configFiles": [
    {
      "dir": "etc",
      "mappings": [
        {
          "template": "maum-admin-server.conf.in",
          "useReserved": true
        }
      ]
    },
    {
      "dir": "etc/supervisor/conf.d",
      "mappings": [
        {
          "template": "maum-admin-server.conf.in"
        }
      ]
    },
    {
      "dir": "etc/nginx",
      "mappings": [
        {
          "template": "mlt-proxy.conf.in"
        },
        {
          "template": "mlt-proxy-upstream.conf.in"
        }
      ]
    },
    {
      "dir": "etc/logback",
      "mappings": [
        {
          "template": "maum-admin-server-logback.xml.in"
        }
      ]
    }
  ],
  "variables": [
    {
      "variable": "LOGS_DIR",
      "description": "logs directory",
      "default_value": "${MAUM_ROOT}/logs"
    },
    {
      "variable": "MAI_API_SERVER_HOST",
      "description": "maum admin api server host",
      "default_value": "${HOSTIP}"
    },
    {
      "variable": "MAI_API_SERVER_PORT",
      "description": "maum admin api server port",
      "default_value": "9881"
    },
    {
      "variable": "WEB_PROXY_HOST",
      "description": "Web proxy host",
      "default_value": "${HOSTIP}"
    },
    {
      "variable": "WEB_PROXY_PORT",
      "description": "Web proxy port",
      "default_value": "9880"
    },
    {
      "variable": "MAUM_ADMIN_WEB_HOST",
      "description": "Web proxy host",
      "default_value": "${HOSTIP}"
    },
    {
      "variable": "MAUM_ADMIN_WEB_PORT",
      "description": "Web proxy port",
      "default_value": "9880"
    },
    {
      "variable": "CALLBACK_SERVER_PROTOCOL",
      "description": "callback server protocol",
      "default_value": "http"
    },
    {
      "variable": "REST_API_HOST",
      "description": "rest api host",
      "default_value": "127.0.0.1"
    },
    {
      "variable": "REST_API_PORT",
      "description": "rest api port",
      "default_value": "9881"
    },
    {
      "variable": "MAI_DS_CONNECTOR",
      "description": "Tutor datasource connector driver",
      "default_value": "mysql"
    },
    {
      "variable": "MAI_DB_HOST",
      "description": "Tutor datasource host",
      "default_value": "localhost"
    },
    {
      "variable": "MAI_DB_PORT",
      "description": "Tutor datasource port",
      "default_value": "3306"
    },
    {
      "variable": "MAI_DB_SCHEMA",
      "description": "Tutor datasource database",
      "default_value": "maum_admin"
    },
    {
      "variable": "MAI_DB_USER",
      "description": "Tutor datasource user",
      "default_value": "maum"
    },
    {
      "variable": "MAI_DB_PASSWORD",
      "description": "Tutor datasource user",
      "default_value": "ggoggoma"
    },
    {
      "variable": "MAI_SERVER_LOGBACK",
      "description": "mlt rest logfile name",
      "default_value": "mlt-rest"
    },
    {
      "variable": "BRAIN_SDS_TRAIN_SERVER_IP",
      "description": "SDS training server ip",
      "default_value": "${HOSTIP}"
    },
    {
      "variable": "BRAIN_SDS_TRAIN_SERVER_PORT",
      "description": "SDS training server port",
      "default_value": "9861"
    },
    {
      "variable": "BRAIN_SDS_TALK_SERVER_IP",
      "description": "SDS talk server ip",
      "default_value": "${HOSTIP}"
    },
    {
      "variable": "BRAIN_SDS_TALK_SERVER_PORT",
      "description": "SDS talk server port",
      "default_value": "9860"
    },
    {
      "variable": "BRAIN_MRC_TRAIN_SERVER_IP",
      "description": "MRC training server ip",
      "default_value": "${HOSTIP}"
    },
    {
      "variable": "MRC_PASSAGE_SEARCH_SERVER_IP",
      "description": "MRC passage search server ip",
      "default_value": "${HOSTIP}"
    },
    {
      "variable": "MRC_PASSAGE_SEARCH_SERVER_PORT",
      "description": "MRC passage search server port",
      "default_value": "50055"
    },
    {
      "variable": "HMD_TRAIN_SERVER_IP",
      "description": "HMD training server ip",
      "default_value": "${HOSTIP}"
    },
    {
      "variable": "BRAIN_TA_CL_IP",
      "description": "Brain ta brain cl ip",
      "default_value": "${HOSTIP}"
    },
    {
      "variable": "BRAIN_TA_NLP_KOR_1_SERVER_IP",
      "description": "Brain nlp kor 1 server ip",
      "default_value": "${HOSTIP}"
    },
    {
      "variable": "BRAIN_TA_NLP_KOR_2_SERVER_IP",
      "description": "Brain nlp kor 2 server ip",
      "default_value": "${HOSTIP}"
    },
    {
      "variable": "BRAIN_TA_NLP_KOR_3_SERVER_IP",
      "description": "Brain nlp kor 3 server ip",
      "default_value": "${HOSTIP}"
    },
    {
      "variable": "BRAIN_TA_NLP_ENG_2_SERVER_IP",
      "description": "Brain nlp eng 2 server ip",
      "default_value": "${HOSTIP}"
    },
    {
      "variable": "BRAIN_TA_NLP_WE_IP",
      "description": "Brain nlp word embedding",
      "default_value": "${HOSTIP}"
    },
    {
      "variable": "MLT_PARAPHRASE_IP",
      "description": "MLT paraphrase server ip",
      "default_value": "${HOSTIP}"
    },
    {
      "variable": "STT_TRAIN_SERVER_IP",
      "description": "STT train server IP address",
      "default_value": "${HOSTIP}"
    },
    {
      "variable": "STT_TRAIN_SERVER_PORT",
      "description": "STT train server port",
      "default_value": "9802"
    },
    {
      "variable": "STT_EVAL_IP",
      "description": "STT evaluation IP address",
      "default_value": "${HOSTIP}"
    },
    {
      "variable": "STT_ANALYSIS_SERVER_IP",
      "description": "STT analysis IP address",
      "default_value": "${HOSTIP}"
    },
    {
      "variable": "TA_TRAIN_SERVER_IP",
      "description": "TA train server IP address",
      "default_value": "${HOSTIP}"
    },
    {
      "variable": "TA_XDC_TRAINER_IP",
      "description": "TA Xdc train server IP address",
      "default_value": "${HOSTIP}"
    },
    {
      "variable": "TA_XDC_TRAINER_PORT",
      "description": "TA Xdc train server PORT",
      "default_value": "45001"
    },
    {
      "variable": "TA_XDC_CLASS_SERVER_IP",
      "description": "TA Xdc classify server IP address",
      "default_value": "${HOSTIP}"
    },
    {
      "variable": "TA_XDC_CLASS_SERVER_PORT",
      "description": "TA Xdc classify server PORT",
      "default_value": "40001"
    },
    {
      "variable": "SDS_SERVER_IP",
      "description": "SDS server IP address",
      "default_value": "${HOSTIP}"
    },
    {
      "variable": "SDS_TRAIN_SERVER_IP",
      "description": "SDS train server IP address",
      "default_value": "${HOSTIP}"
    },
    {
      "variable": "BSQA_SERVER_IP",
      "description": "Basic QA server IP address",
      "default_value": "${HOSTIP}"
    },
    {
      "variable": "NQA_SERVER_IP",
      "description": "NQA server IP address",
      "default_value": "${HOSTIP}"
    },
    {
      "variable": "NGINX_BIN",
      "description": "nginx binary full path or name",
      "default_value": "/usr/sbin/nginx"
    },
    {
      "variable": "EXPORT_HOST",
      "description": "Host IP or DNS name for external access",
      "default_value": "${HOSTIP}"
    },
    {
      "variable": "SVC_HOST",
      "description": "Local host IP or DNS name for binding address",
      "default_value": "${HOSTIP}"
    },
    {
      "variable": "ALT_SVC_HOST",
      "description": "nginx alt hostname",
      "default_value": "www.${HOSTIP}"
    },
    {
      "variable": "HAZELCAST_SERVER_IP",
      "description": "hazelcast server ip address",
      "default_value": "${HOSTIP}"
    },
    {
      "variable": "HAZELCAST_SERVER_PORT",
      "description": "hazelcast server port",
      "default_value": "5701"
    },
    {
      "variable": "HAZELCAST_INVOCATION_TIMEOUT_SEC",
      "description": "Hazelcast client invocation timeout seconds",
      "default_value": "120"
    }
  ]
}
